…
``` r
group_sizes = 2:50
num_simulations = 10000

 birthday_results = tibble(
  group_size = group_sizes,
  probability = map_dbl(group_sizes, function(n) {
    mean(replicate(num_simulations, shared_birthday(n)))
  })
)
birthday_results
```

    ## # A tibble: 49 × 2
    ##    group_size probability
    ##         <int>       <dbl>
    ##  1          2      0.0024
    ##  2          3      0.0085
    ##  3          4      0.0167
    ##  4          5      0.0267
    ##  5          6      0.0399
    ##  6          7      0.0521
    ##  7          8      0.0751
    ##  8          9      0.0925
    ##  9         10      0.116 
    ## 10         11      0.139 
    ## # ℹ 39 more rows
…
    ## Warning: There was 1 warning in `mutate()`.
    ## ℹ In argument: `test_result = purrr::map2(...)`.
    ## Caused by warning in `prop.test()`:
    ## ! Chi-squared approximation may be incorrect

``` r
city_test_results
```

    ## # A tibble: 51 × 4
    ##    city_state      estimate conf.low conf.high
    ##    <chr>              <dbl>    <dbl>     <dbl>
    ##  1 Albuquerque, NM    0.386    0.337     0.438
    ##  2 Atlanta, GA        0.383    0.353     0.415
    ##  3 Baltimore, MD      0.646    0.628     0.663
    ##  4 Baton Rouge, LA    0.462    0.414     0.511
    ##  5 Birmingham, AL     0.434    0.399     0.469
    ##  6 Boston, MA         0.505    0.465     0.545
    ##  7 Buffalo, NY        0.612    0.569     0.654
    ##  8 Charlotte, NC      0.300    0.266     0.336
    ##  9 Chicago, IL        0.736    0.724     0.747
    ## 10 Cincinnati, OH     0.445    0.408     0.483
    ## # ℹ 41 more rows

Tulsa, AL is the wrong row, since there is only one Tulsa in OK. Then I
would delete Tulsa, AL row

``` r
city_test_results = city_test_results |>
  filter(city_state != "Tulsa, AL")
city_test_results
```

    ## # A tibble: 50 × 4
    ##    city_state      estimate conf.low conf.high
    ##    <chr>              <dbl>    <dbl>     <dbl>
    ##  1 Albuquerque, NM    0.386    0.337     0.438
    ##  2 Atlanta, GA        0.383    0.353     0.415
    ##  3 Baltimore, MD      0.646    0.628     0.663
    ##  4 Baton Rouge, LA    0.462    0.414     0.511
    ##  5 Birmingham, AL     0.434    0.399     0.469
    ##  6 Boston, MA         0.505    0.465     0.545
    ##  7 Buffalo, NY        0.612    0.569     0.654
    ##  8 Charlotte, NC      0.300    0.266     0.336
    ##  9 Chicago, IL        0.736    0.724     0.747
    ## 10 Cincinnati, OH     0.445    0.408     0.483
    ## # ℹ 40 more rows
…
